<?xml version="1.0" encoding="UTF-8"?>
<testng-results skipped="0" failed="0" total="1" passed="1">
  <reporter-output>
  </reporter-output>
  <suite name="Suite" duration-ms="4941" started-at="2020-01-06T16:56:15Z" finished-at="2020-01-06T16:56:20Z">
    <groups>
    </groups>
    <test name="Test" duration-ms="4941" started-at="2020-01-06T16:56:15Z" finished-at="2020-01-06T16:56:20Z">
      <class name="GCI.HomepageTest">
        <test-method status="PASS" signature="hmpage()[pri:0, instance:GCI.HomepageTest@c8e4bb0]" name="hmpage" duration-ms="4935" started-at="2020-01-06T10:56:15Z" finished-at="2020-01-06T10:56:20Z">
          <reporter-output>
          </reporter-output>
        </test-method> <!-- hmpage -->
      </class> <!-- GCI.HomepageTest -->
    </test> <!-- Test -->
  </suite> <!-- Suite -->
</testng-results>
